com\d2express\quickart\model\User.class
com\d2express\quickart\model\Response.class
com\d2express\quickart\service\QuickartService.class
com\d2express\quickart\common\QuickartConstants.class
com\d2express\quickart\dao\QuickartAppDao.class
com\d2express\quickart\repository\QuickartInventoryRepository.class
com\d2express\quickart\ServletInitializer.class
com\d2express\quickart\service\impl\QuickartServiceImpl.class
com\d2express\quickart\model\OrderDetails.class
com\d2express\quickart\model\Orders.class
com\d2express\quickart\dao\impl\QuickartDaoImpl.class
com\d2express\quickart\repository\QuickartUserRepository.class
com\d2express\quickart\controller\QuickartController.class
com\d2express\quickart\repository\QuickartOrderRepository.class
com\d2express\quickart\model\PurchaseItem.class
com\d2express\quickart\model\Store.class
com\d2express\quickart\model\InventoryItem.class
com\d2express\quickart\QuickartApplication.class
